Pipeline/res/main_tb.vcd
$date
	Sat Mar  8 21:25:12 2025
$end
$version
	GTKWave Analyzer v3.3.116 (w)1999-2023 BSI
$end
$timescale
	1 s
$end
$scope module main_tb $end
$scope module uut $end
$var wire 1 $ PCSrc $end
$var wire 1 * branch $end
$var wire 2 ' forward_a[1:0] $end
$upscope $end
$var reg 1 " clk $end
$scope module uut $end
$var wire 1 + zero $end
$var wire 64 - rs2_data[63:0] $end
$var wire 64 , rs1_data[63:0] $end
$var wire 64 # pc[63:0] $end
$var wire 32 & instruction[31:0] $end
$var wire 1 % PC_write $end
$var wire 2 ( forward_b[1:0] $end
$scope module exmem_reg $end
$var wire 64 4 alu_result[63:0] $end
$var wire 1 ) flush $end
$var reg 64 5 alu_result_d3[63:0] $end
$var reg 64 3 rs2_data_d3[63:0] $end
$upscope $end
$scope module id_stage $end
$var wire 64 . rd_data[63:0] $end
$var wire 5 7 rd_addr[4:0] $end
$upscope $end
$scope module idex_reg $end
$var wire 64 / rs1_data[63:0] $end
$var wire 64 1 rs2_data[63:0] $end
$var reg 64 0 rs1_data_d2[63:0] $end
$var reg 64 2 rs2_data_d2[63:0] $end
$upscope $end
$scope module wb_stage $end
$var wire 64 6 write_back_data[63:0] $end
$upscope $end
$upscope $end
$upscope $end
$enddefinitions $end
#10
$dumpvars
b0 3
b0 (
b1000000011010000100011 &
0"
0$
0*
b0 7
b0 #
b0 .
b0 2
1+
b0 /
b0 1
b0 0
1%
b0 5
b0 -
b0 6
b0 '
b0 ,
b0 4
0)
$end
#15
b100000000011000110000011 &
1"
b100 #
#20
0"
b10 1
b10 -
#25
1"
b1000 #
b1100001000001010110011 &
b10 2
0+
b1000 4
#30
0"
b0 -
b0 1
#35
1"
b10 3
b0 2
b1000101000001010110011 &
b1100 #
0%
b1000 5
#40
b11 1
0"
b1 /
b11 -
b1 ,
#45
1"
b1000 7
b10 (
b1 0
b11 2
b1001 4
b1000 .
b0 3
1%
b1000 6
#50
0"
#55
1"
b10 6
b10 .
b11 7
b11 4
b1 (
b1001 5
b10000 #
b11 3
#60
b101 ,
0"
b10 1
b10 -
b101 /
#65
1"
b1001 6
b100000000011001100011 &
b0 (
b101 4
b1001 .
b101 0
b101 7
b10 2
b10100 #
b11 5
b10 '
#70
0"
#75
1"
b10 3
b11 6
1*
b10101100011 &
b11 .
b111 4
b101 5
b11000 #
#80
b0 /
0"
b0 ,
b1 -
b1 1
#85
1"
b11100 #
b101 .
b0 '
b1100001000001010110011 &
b0 0
b101 6
b111 5
b1111111111111111111111111111111111111111111111111111111111111111 4
b1 2
#90
0"
b0 1
b0 -
#95
1"
b0 2
b1 3
b100000 #
b111 .
0*
b0 4
1+
b1111111111111111111111111111111111111111111111111111111111111111 5
b111 6
#100
b10 -
0"
b1 /
b10 1
b1 ,
#105
1"
b1111111111111111111111111111111111111111111111111111111111111111 6
b10 2
1)
b1100 7
b1111111111111111111111111111111111111111111111111111111111111111 .
b1 0
1$
b100100 #
b0 3
b0 5
0+
b11 4
#110
0"
#115
1"
b0 4
b101100 #
b0 .
b0 6
b1010 7
b0 2
0)
0$
b11100101000010000110011 &
b0 0
1+
#120
b0 ,
0"
b0 -
b0 1
b0 /
#125
1"
b0 &
b0 7
b110000 #
#130
b111 /
0"
b111 ,
b111 1
b111 -
#135
1"
b110100 #
b1110 4
0+
b111 2
b111 0
#140
0"
b0 -
b0 /
b0 1
b0 ,
#145
b0 0
1+
b111000 #
1"
b0 4
b0 2
b1110 5
b111 3
#150
0"
#155
1"
b0 3
b1000 7
b1110 6
b1110 .
b111100 #
b0 5
#160
0"
#165
1"
b0 .
b0 7
b0 6
b1000000 #
#170
0"
#175
1"
b1000100 #
#180
0"
#185
1"
b1001000 #
#190
0"
#195
1"
b1001100 #
#200
0"
#205
1"
b1010000 #
#210
0"
#215
1"
b1010100 #
#220
0"
#225
1"
b1011000 #
#230
0"
#235
1"
b1011100 #
#240
0"
#245
1"
b1100000 #
#250
0"
#255
1"
b1100100 #
#260
0"
#265
1"
b1101000 #
#270
0"
#275
1"
b1101100 #
#280
0"
#285
1"
b1110000 #
#290
0"
#295
1"
b1110100 #
#300
0"
#305
1"
b1111000 #
#310
0"
#315
1"
b1111100 #
#320
0"
#325
1"
b10000000 #
#330
0"
#335
1"
b10000100 #
#340
0"
#345
1"
b10001000 #
#350
0"
#355
1"
b10001100 #
#360
0"
#365
1"
b10010000 #
#370
0"
#375
1"
b10010100 #
#380
0"
#385
1"
b10011000 #
#390
0"
#395
1"
b10011100 #
#400
0"
#405
1"
b10100000 #
#410
0"
#415
1"
b10100100 #
#420
0"
#425
1"
b10101000 #
#430
0"
#435
1"
b10101100 #
#440
0"
#445
1"
b10110000 #
#450
0"
#455
1"
b10110100 #
#460
0"
#465
1"
b10111000 #
#470
0"
#475
1"
b10111100 #
#480
0"
#485
1"
b11000000 #
#490
0"
#495
1"
b11000100 #
#500
0"
#505
1"
b11001000 #
#510
0"
#515
1"
b11001100 #
#520
0"
#525
1"
b11010000 #
#530
0"
#535
1"
b11010100 #
#540
0"
#545
1"
b11011000 #
#550
0"
#555
1"
b11011100 #
#560
0"
#565
1"
b11100000 #
#570
0"
#575
1"
b11100100 #
#580
0"
#585
1"
b11101000 #
#590
0"
#595
1"
b11101100 #
#600
0"
#605
1"
b11110000 #
#610
0"
#615
1"
b11110100 #
#620
0"
#625
1"
b11111000 #
#630
0"
#635
1"
b11111100 #
#640
0"
#645
1"
b100000000 #
#650
0"
#655
1"
b100000100 #
#660
0"
#665
1"
b100001000 #
#670
0"
#675
1"
b100001100 #
#680
0"
#685
1"
b100010000 #
#690
0"
#695
1"
b100010100 #
#700
0"
#705
1"
b100011000 #
#710
0"
#715
1"
b100011100 #
#720
0"
#725
1"
b100100000 #
#730
0"
#735
1"
b100100100 #
#740
0"
#745
1"
b100101000 #
#750
0"
#755
1"
b100101100 #
#760
0"
#765
1"
b100110000 #
#770
0"
#775
1"
b100110100 #
#780
0"
#785
1"
b100111000 #
#790
0"
#795
1"
b100111100 #
#800
0"
#805
1"
b101000000 #
#810
0"
#815
1"
b101000100 #
#820
0"
#825
1"
b101001000 #
#830
0"
#835
1"
b101001100 #
#840
0"
#845
1"
b101010000 #
#850
0"
#855
1"
b101010100 #
#860
0"
#865
1"
b101011000 #
#870
0"
#875
1"
b101011100 #
#880
0"
#885
1"
b101100000 #
#890
0"
#895
1"
b101100100 #
#900
0"
#905
1"
b101101000 #
#910
0"
#915
1"
b101101100 #
#920
0"
#925
1"
b101110000 #
#930
0"
#935
1"
b101110100 #
#940
0"
#945
1"
b101111000 #
#950
0"
#955
1"
b101111100 #
#960
0"
#965
1"
b110000000 #
#970
0"
#975
1"
b110000100 #
#980
0"
#985
1"
b110001000 #
#990
0"
#995
1"
b110001100 #
#1000
0"
#1005
1"
b110010000 #
#1010
0"
#1015
1"
b110010100 #
#1020
0"
#1025
1"
b110011000 #
#1030
0"
#1035
1"
b110011100 #
#1040
0"
#1045
1"
b110100000 #
#1050
0"
#1055
1"
b110100100 #
#1060
0"
#1065
1"
b110101000 #
#1070
0"
#1075
1"
b110101100 #
#1080
0"
#1085
1"
b110110000 #
#1090
0"
#1095
1"
b110110100 #
#1100
0"
#1105
1"
b110111000 #
#1110
0"
#1115
1"
b110111100 #
#1120
0"
#1125
1"
b111000000 #
#1130
0"
#1135
1"
b111000100 #
#1140
0"
#1145
1"
b111001000 #
#1150
0"
#1155
1"
b111001100 #
#1160
0"
#1165
1"
b111010000 #
#1170
0"
#1175
1"
b111010100 #
#1180
0"
#1185
1"
b111011000 #
#1190
0"
#1195
1"
b111011100 #
#1200
0"
#1205
1"
b111100000 #
#1210
0"
#1215
1"
b111100100 #
#1220
0"
#1225
1"
b111101000 #
#1230
0"
#1235
1"
b111101100 #
#1240
0"
#1245
1"
b111110000 #
#1250
0"
#1255
1"
b111110100 #
#1260
0"
#1265
1"
b111111000 #
#1270
0"
#1275
1"
b111111100 #
